缺失数据的系统分析
…
分析数据缺失情况

# A tibble: 88 x 4
# Groups:   country [44]
   country          variable n_miss pct_miss
   <chr>            <chr>     <int>    <dbl>
 1 阿根廷           A_dollar    121     98.4
 2 阿根廷           B_dollar    105     85.4
 3 阿拉伯联合酋长国 B_dollar     62     50.4
 4 阿拉伯联合酋长国 A_dollar     61     49.6
 5 阿曼             A_dollar     91     74.0
 6 阿曼             B_dollar     66     53.7
 7 奥地利           A_dollar     98     79.7
 8 奥地利           B_dollar     68     55.3
 9 澳大利亚         B_dollar     62     50.4
10 澳大利亚         A_dollar     61     49.6
# ... with 78 more rows
…
